ID	Sospetto clinico	Condition	Gender
RX3.2020	lipedema	L1	F
RX4.2020	lipedema	L1	F
RX5.2020	lipedema	L1	F
RX6.2020	lipedema	L1	F
RX7.2020	lipedema	L1	M
RX8.2020	lipedema	L1	F
RX9.2020	lipedema	L1 + DD Diffuse	F
RX10.2020	lipedema	L1	F
RX11.2020	lipedema	L1	F
RX12.2020	lipedema	Lipedema	F
RX13.2020	lipedema	L1	F
RX14.2020	lipedema	L1	F
RX15.2020	lipedema	L1	M
RX16.2020	lipedema	L1	F
RX17.2020	lipedema	Lipedema	F
RX18.2020	lipedema	L1	F
RX19.2020	lipedema	L1	F
RX20.2020	lipedema	L2	F
RX21.2020	lipedema	L2	F
RX22.2020	lipedema	L2	F
RX23.2020	lipedema	L2	F
RX24.2020	lipedema	L2	F
RX25.2020	lipedema	L2	F
RX26.2020	lipedema	L2	F
RX27.2020	lipedema	L2	F
RX28.2020	lipedema	L2	F
RX29.2020	lipedema	L2	F
RX30.2020	lipedema	L2	F
RX31.2020	lipedema	L2	F
RX32.2020	lipedema	L2	F
RX33.2020	lipedema	L2	F
RX34.2020	lipedema	L2	F
RX186.2020	lipedema	L2	F
RX35.2020	lipedema	L2	F
RX36.2020	lipedema	L2	M
RX37.2020	lipedema	L2	F
RX38.2020	lipedema	L2	F
RX39.2020	lipedema	L2	F
RX40.2020	lipedema	L2	F
RX41.2020	lipedema	L2	F
RX42.2020	lipedema	L2	F
RX43.2020	lipedema	L2	F
RX44.2020	lipedema	L2	F
RX45.2020	lipedema	L2	F
RX46.2020	lipedema	L2 + DD Mixed	F
RX47.2020	lipedema	L2	F
RX48.2020	lipedema	L2	F
RX49.2020	lipedema	L2	F
RX50.2020	lipedema	L2	F
RX51.2020	lipedema	L2	F
RX52.2020	lipedema	L2	F
RX53.2020	lipedema	L2	F
RX54.2020	lipedema	L2 + Lipomas	F
RX55.2020	lipedema	L2	F
RX56.2020	lipedema	L2	M
RX57.2020	lipedema	L2	F
RX58.2020	lipedema	L2	F
RX59.2020	lipedema	L2	F
RX60.2020	lipedema	L2	F
RX61.2020	lipedema	L2	F
RX62.2020	lipedema	L3 + Angiolipoma	F
RX63.2020	lipedema	L3	F
RX64.2020	lipedema	L3	F
RX65.2020	lipedema	L3	F
RX66.2020	lipedema	L3	F
RX67.2020	lipedema	L3	F
RX68.2020	lipedema	L3	F
RX69.2020	lipedema	L3	F
RX70.2020	lipedema	L3	F
RX71.2020	lipedema	L3	F
RX72.2020	lipedema	L3	F
RX73.2020	lipedema	L3	F
RX74.2020	lipedema	L3	F
RX75.2020	lipedema	L3	F
RX76.2020	lipedema	L3	F
RX77.2020	lipedema	L3	F
RX78.2020	lipedema	L3	F
RX79.2020	lipedema	L3	F
RX80.2020	lipedema	L3	F
RX81.2020	lipedema	L3	F
RX82.2020	lipedema	L3	F
RX83.2020	lipedema	lipolymphedema	F
RX84.2020	lipedema	L3	F
RX85.2020	lipedema	L3	F
RX86.2020	lipedema	L3	F
RX87.2020	lipedema	L3	F
RX88.2020	lipedema	L3	F
RX89.2020	lipedema	L3	F
RX90.2020	lipedema	L3	F
RX91.2020	lipedema	L3	F
RX92.2020	lipedema	L3	F
RX93.2020	lipedema	L3	F
RX94.2020	lipedema	L3	F
RX95.2020	lipedema	L3	F
RX96.2020	lipedema	L3	F
RX97.2020	lipedema	L3	F
RX98.2020	lipedema	L3	F
RX99.2020	lipedema	L3	F
RX100.2020	lipedema	L3	F
RX101.2020	lipedema	L3	F
RX102.2020	lipedema	L3	F
RX103.2020	lipedema	L3	F
RX104.2020	lipedema	L3	F
RX105.2020	lipedema	L3	F
RX106.2020	lipedema	L3	F
RX107.2020	lipedema	L3	M
RX108.2020	Anoressia	AN	F
RX109.2020	Anoressia	AN	F
RX110.2020	Anoressia	AN	F
RX111.2020	Anoressia	BN	F
RX112.2020	Anoressia	AN	F
RX113.2020	Anoressia	non affetto	M
RX114.2020	Anoressia	AN	F
RX115.2020	Anoressia	AN	F
RX116.2020	Anoressia	AN	F
RX117.2020	Anoressia	AN	F
RX118.2020	Anoressia	AN	F
RX119.2020	Anoressia	AN	F
RX120.2020	Anoressia	AN	F
RX121.2020	Anoressia	AN	F
RX122.2020	Anoressia	AN	F
RX123.2020	Anoressia	AN	F
RX124.2020	Anoressia	AN	F
RX125.2020	Anoressia	AN	F
RX126.2020	Anoressia	AN	F
RX127.2020	Anoressia	AN	F
RX128.2020	Anoressia	AN	F
RX129.2020	Anoressia	AN	F
RX130.2020	Anoressia	AN	F
RX131.2020	Anoressia	AN	F
RX132.2020	Anoressia	AN	F
RX133.2020	Anoressia	AN	F
RX134.2020	Anoressia	AN	F
RX135.2020	Anoressia	AN	F
RX136.2020	Anoressia	AN	F
RX137.2020	Anoressia	AN	F
RX138.2020	Anoressia	AN	F
RX139.2020	Anoressia	AN	F
RX140.2020	Anoressia	AN	F
RX141.2020	Anoressia	AN	F
RX142.2020	Anoressia	AN	F
RX143.2020	Anoressia	AN	F
RX144.2020	Anoressia	AN	F
RX145.2020	Anoressia	AN	F
RX146.2020	Anoressia	AN	F
RX147.2020	Anoressia	AN	F
RX148.2020	Anoressia	AN	F
RX149.2020	Anoressia	AN	F
RX150.2020	Anoressia	AN	F
RX151.2020	Anoressia	AN	F
RX152.2020	Anoressia	AN	F
RX153.2020	Anoressia	AN	F
RX154.2020	Anoressia	AN	F
RX155.2020	Anoressia	AN	F
RX156.2020	Anoressia	AN	F
RX157.2020	Anoressia	AN	F
RX158.2020	Anoressia	AN	F
RX159.2020	Anoressia	AN	F
RX160.2020	Anoressia	AN	F
RX161.2020	Anoressia	AN	F
RX162.2020	Anoressia	AN	F
RX163.2020	Anoressia	AN	F
RX164.2020	Anoressia	AN	F
RX165.2020	Anoressia	AN	F
RX166.2020	Anoressia	AN	F
RX167.2020	Anoressia	AN	F
RX168.2020	Anoressia	AN	F
RX169.2020	Anoressia	AN	F
RX170.2020	Anoressia	AN	F
RX171.2020	Anoressia	AN	F
RX172.2020	Anoressia	AN	F
RX173.2020	Anoressia	AN	F
RX174.2020	Anoressia	AN	F
RX175.2020	Anoressia	AN	F
RX176.2020	Anoressia	AN	M
RX177.2020	Anoressia	AN	M
RX178.2020	Anoressia	AN	M
RX179.2020	Anoressia	AN	M
RX180.2020	Anoressia	AN	M
RX181.2020	obesity	obesity	F
RX182.2020	obesity	obesity	M
RX183.2020	obesity	obesity	F
RX184.2020	obesity	obesity	F
RX187.2020	obesity	obesity	M
RX185.2020	obesity	obesity	F
RX188.2020	obesity	obesity	M
RX189.2020	obesity	obesity	M
RX190.2020	obesity	obesity	M
RX191.2020	obesity	obesity	F
RX192.2020	obesity	obesity	F
RX193.2020	obesity	obesity	F
RX194.2020	obesity	obesity	M
